{
    "name": "rahovart",
    "creatureType": "demon",
    "groups": [
        "boss"
    ],
    "entityClass": "com.lycanitesmobs.core.entity.creature.EntityRahovart",
    "modelClass": "com.lycanitesmobs.client.model.creature.ModelRahovart",
    "loadDefault": true,
    "enabled": true,
    "spawning": {
        "enabled": true,
        "spawners": [],
        "disableSubspecies": false,
        "dimensionIds": [
            "minecraft:the_nether"
        ],
        "dimensionListType": "whitelist",
        "ignoreBiome": false,
        "biomeTags": [
            "nether"
        ],
        "spawnWeight": 1,
        "dungeonWeight": 0,
        "spawnAreaLimit": 5,
        "spawnGroupMin": 1,
        "spawnGroupMax": 3,
        "spawnsInLight": false,
        "spawnsInDark": true,
        "worldDayMin": -1,
        "despawnNatural": false,
        "despawnForced": false
    },
    "width": 7.0,
    "height": 25.0,
    "experience": 10000,
    "health": 4000,
    "defense": 2,
    "armor": 0,
    "speed": 32,
    "damage": 2,
    "attackSpeed": 1,
    "rangedSpeed": 0.5,
    "effectDuration": 5,
    "effectAmplifier": 0,
    "pierce": 2,
    "sight": 64,
    "knockbackResistance": 1,
    "eggBackColor": "#000000",
    "eggForeColor": "#FF0000",
    "boss": true,
    "subspecies": [
        {
            "index": 0,
            "variants": [
                {
                    "index": 1,
                    "name": "lux",
                    "type": "uncommon"
                },
                {
                    "index": 2,
                    "name": "dark",
                    "type": "uncommon"
                }
            ]
        }
    ],
    "element": "nether",
    "diets": [
        "carnivore",
        "piscivore",
        "insectivore"
    ],
    "peaceful": false,
    "summonable": false,
    "tameable": false,
    "mountable": false,
    "summonCost": 2,
    "dungeonLevel": 1,
    "drops": [
        {
            "item": "minecraft:blaze_powder",
            "minAmount": 20,
            "maxAmount": 50,
            "chance": 1
        },
        {
            "item": "minecraft:blaze_rod",
            "minAmount": 10,
            "maxAmount": 20,
            "chance": 1
        },
        {
            "item": "minecraft:diamond",
            "minAmount": 10,
            "maxAmount": 20,
            "chance": 1
        },
        {
            "item": "minecraft:nether_star",
            "minAmount": 1,
            "maxAmount": 8,
            "chance": 1
        },
        {
            "item": "lycanitesmobs:doomfireballcharge",
            "minAmount": 10,
            "maxAmount": 20,
            "chance": 1
        },
        {
            "item": "lycanitesmobs:hellfireballcharge",
            "minAmount": 10,
            "maxAmount": 20,
            "chance": 1
        },
        {
            "item": "lycanitesmobs:demonstone",
            "minAmount": 64,
            "maxAmount": 128,
            "chance": 1
        },
        {
            "item": "lycanitesmobs:demonstonebrick",
            "minAmount": 64,
            "maxAmount": 128,
            "chance": 1
        },
        {
            "item": "lycanitesmobs:demonstonetile",
            "minAmount": 64,
            "maxAmount": 128,
            "chance": 1
        },
        {
            "item": "lycanitesmobs:demoncrystal",
            "minAmount": 64,
            "maxAmount": 128,
            "chance": 1
        },
        {
            "item": "lycanitesmobs:soulstone_demon",
            "minAmount": 2,
            "maxAmount": 6,
            "chance": 1
        },
        {
            "item": "lycanitesmobs:wraithsigil",
            "minAmount": 1,
            "maxAmount": 1,
            "chance": 1
        }
    ],
    "sizeScale": 1,
    "hitboxScale": 1
}